<svg width="20" height="20" viewBox="0 0 20 20" fill="none" xmlns="http://www.w3.org/2000/svg">
<path d="M10 0C4.47695 0 0 4.47695 0 10C0 15.523 4.47695 20 10 20C15.5227 20 20 15.523 20 10C20 4.47695 15.523 0 10 0ZM13.4266 11.9922C13.9367 12.4719 14.1145 13.0414 13.5871 13.5762C13.0598 14.1109 12.4934 13.948 12.0023 13.443L9.96797 11.3492C9.25195 12.1109 8.62773 12.7832 7.99453 13.4465C7.50742 13.957 6.93242 14.107 6.41133 13.5707C5.89023 13.0344 6.07539 12.4676 6.58242 11.9867C7.22852 11.3734 7.87383 10.7598 8.78555 9.89336C8.00117 9.2293 7.29375 8.64961 6.61211 8.04258C6.06523 7.55508 5.86094 6.95273 6.45117 6.39375C6.99805 5.87734 7.56289 6.08906 8.03594 6.59375C8.64414 7.24258 9.24922 7.89375 10.0043 8.70312C10.7855 7.86953 11.4082 7.19219 12.0438 6.52578C12.5051 6.0418 13.0594 5.92109 13.5582 6.39648C14.1004 6.91367 13.9664 7.4875 13.4559 7.97891C12.7937 8.61602 12.1211 9.24141 11.3023 10.0141C12.0875 10.7422 12.7598 11.3641 13.4266 11.9922Z" fill="#6471BF"/>
</svg>
