<svg width="15" height="14" viewBox="0 0 15 14" fill="none" xmlns="http://www.w3.org/2000/svg">
<path d="M8.26816 12.7036L7.59816 13.3736C7.53116 13.4409 7.45153 13.4943 7.36384 13.5307C7.27615 13.5672 7.18212 13.5859 7.08716 13.5859C6.99219 13.5859 6.89817 13.5672 6.81047 13.5307C6.72278 13.4943 6.64315 13.4409 6.57616 13.3736L0.714157 7.51258C0.646853 7.44559 0.593446 7.36596 0.557004 7.27827C0.520562 7.19057 0.501802 7.09655 0.501802 7.00158C0.501802 6.90662 0.520562 6.81259 0.557004 6.7249C0.593446 6.63721 0.646853 6.55758 0.714157 6.49058L6.57616 0.626583C6.64315 0.559279 6.72278 0.505872 6.81047 0.46943C6.89817 0.432988 6.99219 0.414228 7.08716 0.414228C7.18212 0.414228 7.27615 0.432988 7.36384 0.46943C7.45153 0.505872 7.53116 0.559279 7.59816 0.626583L8.26816 1.29658C8.33632 1.36489 8.39016 1.44611 8.42653 1.53549C8.46289 1.62487 8.48105 1.72062 8.47993 1.81711C8.47881 1.9136 8.45844 2.00889 8.42002 2.09741C8.38159 2.18592 8.32588 2.26588 8.25616 2.33258L4.62216 5.79258L13.2902 5.79258C13.3853 5.79232 13.4796 5.81087 13.5675 5.84716C13.6555 5.88345 13.7354 5.93677 13.8027 6.00405C13.87 6.07133 13.9233 6.15125 13.9596 6.23921C13.9959 6.32717 14.0144 6.42143 14.0142 6.51658V7.48258C14.0144 7.57773 13.9959 7.672 13.9596 7.75996C13.9233 7.84792 13.87 7.92783 13.8027 7.99512C13.7354 8.0624 13.6555 8.11572 13.5675 8.15201C13.4796 8.1883 13.3853 8.20685 13.2902 8.20658H4.62216L8.25616 11.6686C8.32647 11.7348 8.38271 11.8146 8.42152 11.9031C8.46033 11.9915 8.4809 12.0869 8.48202 12.1835C8.48314 12.2801 8.46478 12.376 8.42804 12.4653C8.39129 12.5547 8.33692 12.6357 8.26816 12.7036Z" fill="#636FC5"/>
</svg>
